{
    "cordova-plugin-whitelist": {
        "source": {
            "type": "registry",
            "id": "cordova-plugin-whitelist@1"
        },
        "is_top_level": true,
        "variables": {}
    },
    "cordova-plugin-console": {
        "source": {
            "type": "registry",
            "id": "cordova-plugin-console"
        },
        "is_top_level": true,
        "variables": {}
    },
    "cordova-plugin-geolocation": {
        "source": {
            "type": "registry",
            "id": "cordova-plugin-geolocation"
        },
        "is_top_level": true,
        "variables": {}
    },
    "cordova-plugin-compat": {
        "source": {
            "type": "registry",
            "id": "cordova-plugin-compat"
        },
        "is_top_level": false,
        "variables": {}
    },
    "cordova-plugin-googlemaps": {
        "source": {
            "type": "registry",
            "id": "cordova-plugin-googlemaps"
        },
        "is_top_level": true,
        "variables": {
            "API_KEY_FOR_ANDROID": "AIzaSyB_0ZBZ3P0aovAn7A9V2t_Vt7cicFIQeqI",
            "API_KEY_FOR_IOS": "AIzaSyB_0ZBZ3P0aovAn7A9V2t_Vt7cicFIQeqI",
            "NSLOCATIONWHENINUSEUSAGEDESCRIPTION": "Show your location on the map",
            "NSLOCATIONALWAYSUSAGEDESCRIPTION": "Trace your location on the map"
        }
    },
    "com.googlemaps.ios": {
        "source": {
            "type": "git",
            "url": "https://github.com/mapsplugin/cordova-plugin-googlemaps-sdk",
            "subdir": "."
        },
        "is_top_level": false,
        "variables": {}
    },
    "cordova-plugin-camera": {
        "source": {
            "type": "registry",
            "id": "cordova-plugin-camera"
        },
        "is_top_level": true,
        "variables": {
            "CAMERA_USAGE_DESCRIPTION": "Open Story needs access to your camera",
            "PHOTOLIBRARY_USAGE_DESCRIPTION": "We need access to your photos to choose a profile picture"
        }
    },
    "cordova-plugin-crop": {
        "source": {
            "type": "registry",
            "id": "cordova-plugin-crop"
        },
        "is_top_level": true,
        "variables": {}
    },
    "phonegap-plugin-push": {
        "source": {
            "type": "registry",
            "id": "phonegap-plugin-push@1.10.2"
        },
        "is_top_level": true,
        "variables": {
            "SENDER_ID": "988376707726"
        }
    }
}