<?xml version="1.0" encoding="utf-8"?>
<!-- Generator: Adobe Illustrator 17.0.0, SVG Export Plug-In . SVG Version: 6.00 Build 0)  -->
<!DOCTYPE svg PUBLIC "-//W3C//DTD SVG 1.1//EN" "http://www.w3.org/Graphics/SVG/1.1/DTD/svg11.dtd">
<svg version="1.1" id="Layer_1" xmlns="http://www.w3.org/2000/svg" xmlns:xlink="http://www.w3.org/1999/xlink" x="0px" y="0px"
	 width="25px" height="29.237px" viewBox="0 0 25 29.237" enable-background="new 0 0 25 29.237" xml:space="preserve">
<path fill="#A6C9D1" d="M25,12.5C25,5.596,19.404,0,12.5,0S0,5.596,0,12.5c0,5.58,3.658,10.305,8.705,11.912l3.795,4.825
	l3.795-4.825C21.343,22.805,25,18.081,25,12.5z"/>
<path fill="#7A9FAB" d="M12.5,0C5.596,0,0,5.596,0,12.5c0,5.58,3.658,10.305,8.705,11.912l3.795,4.825V0z"/>
<path fill="#F7F7F7" d="M12.376,6.867L6.589,5.288v13.473l2.171,0.592v1.875l3.701-0.839l3.504,1.125v-1.964l2.195-0.569V5.288
	L12.376,6.867z M17.151,18.017l-7.304,1.894v-0.837l7.304-1.896V18.017z M17.151,16.227l-7.304,1.894v-0.837l7.304-1.896V16.227z
	 M17.151,14.476L9.847,16.37v-0.837l7.304-1.896V14.476z M17.151,12.703l-7.304,1.894V13.76l7.304-1.896V12.703z M17.151,10.914
	l-7.304,1.894v-0.837l7.304-1.896V10.914z M17.151,9.159l-7.304,1.894v-0.837l7.304-1.896V9.159z M17.151,7.41L9.847,9.304V8.468
	l7.304-1.896V7.41z"/>
</svg>
